\relax 
\providecommand\hyper@newdestlabel[2]{}
\catcode `"\active 
\catcode `<\active 
\catcode `>\active 
\@nameuse{es@quoting}
\providecommand\HyperFirstAtBeginDocument{\AtBeginDocument}
\HyperFirstAtBeginDocument{\ifx\hyper@anchor\@undefined
\global\let\oldcontentsline\contentsline
\gdef\contentsline#1#2#3#4{\oldcontentsline{#1}{#2}{#3}}
\global\let\oldnewlabel\newlabel
\gdef\newlabel#1#2{\newlabelxx{#1}#2}
\gdef\newlabelxx#1#2#3#4#5#6{\oldnewlabel{#1}{{#2}{#3}}}
\AtEndDocument{\ifx\hyper@anchor\@undefined
\let\contentsline\oldcontentsline
\let\newlabel\oldnewlabel
\fi}
\fi}
\global\let\hyper@last\relax 
\gdef\HyperFirstAtBeginDocument#1{#1}
\providecommand*\HyPL@Entry[1]{}
\HyPL@Entry{0<</S/D>>}
\babel@aux{spanish}{}
\@writefile{lof}{\contentsline {figure}{\numberline {1}{\ignorespaces Desigualdad de Hasse-Weil para la curva elíptica   $x_0x_2^2+x_0x_1x_2+x_0^2x_2 = x_1^3+x_0x_1^2+x_0x_1^2$ y $q=2$.\relax }}{2}{figure.caption.1}\protected@file@percent }
\providecommand*\caption@xref[2]{\@setref\relax\@undefined{#1}}
\newlabel{fig_1}{{1}{2}{Desigualdad de Hasse-Weil para la curva elíptica \\ $x_0x_2^2+x_0x_1x_2+x_0^2x_2 = x_1^3+x_0x_1^2+x_0x_1^2$ y $q=2$.\relax }{figure.caption.1}{}}
\@writefile{lof}{\contentsline {figure}{\numberline {2}{\ignorespaces Suma de Gauss.\relax }}{3}{figure.caption.2}\protected@file@percent }
\newlabel{fig_2}{{2}{3}{Suma de Gauss.\relax }{figure.caption.2}{}}
\@writefile{lof}{\contentsline {figure}{\numberline {3}{\ignorespaces Regla de Hasse-Davenport.\relax }}{4}{figure.caption.3}\protected@file@percent }
\newlabel{fig_3}{{3}{4}{Regla de Hasse-Davenport.\relax }{figure.caption.3}{}}
