\BOOKMARK [1][-]{section.1}{Introducci\363n e historia de las conjeturas}{}% 1
\BOOKMARK [1][-]{section.2}{La funci\363n zeta}{}% 2
\BOOKMARK [2][-]{subsection.2.1}{Series de potencias}{section.2}% 3
\BOOKMARK [2][-]{subsection.2.2}{Cuerpos finitos}{section.2}% 4
\BOOKMARK [2][-]{subsection.2.3}{La funci\363n zeta}{section.2}% 5
\BOOKMARK [2][-]{subsection.2.4}{Las conjecturas de Weil}{section.2}% 6
\BOOKMARK [1][-]{section.3}{El caso de hipersuperficies diagonales}{}% 7
\BOOKMARK [2][-]{subsection.3.1}{Caracteres, sumas de Gauss y Jacobi}{section.3}% 8
\BOOKMARK [2][-]{subsection.3.2}{La relaci\363n de Hasse-Davenport}{section.3}% 9
\BOOKMARK [2][-]{subsection.3.3}{C\341lculo de Ns y conjeturas para hipersuperficies diagonales}{section.3}% 10
\BOOKMARK [1][-]{section.4}{Conjeturas de Weil para curvas}{}% 11
\BOOKMARK [2][-]{subsection.4.1}{Divisores}{section.4}% 12
\BOOKMARK [2][-]{subsection.4.2}{Racionalidad y ecuaci\363n funcional}{section.4}% 13
\BOOKMARK [2][-]{subsection.4.3}{Intersecciones en superficies}{section.4}% 14
\BOOKMARK [2][-]{subsection.4.4}{La desigualdad de Hasse-Weil}{section.4}% 15
\BOOKMARK [1][-]{section.5}{Conclusiones}{}% 16
