This is BibTeX, Version 0.99d (TeX Live 2019)
Capacity: max_strings=100000, hash_size=100000, hash_prime=85009
The top-level auxiliary file: TFM.aux
The style file: alpha.bst
Database file #1: biblio_TFM.bib
You've used 29 entries,
            2543 wiz_defined-function locations,
            718 strings with 7692 characters,
and the built_in function-call counts, 8853 in all, are:
= -- 834
> -- 332
< -- 30
+ -- 100
- -- 96
* -- 535
:= -- 1510
add.period$ -- 87
call.type$ -- 29
change.case$ -- 140
chr.to.int$ -- 29
cite$ -- 29
duplicate$ -- 433
empty$ -- 705
format.name$ -- 146
if$ -- 1774
int.to.chr$ -- 1
int.to.str$ -- 0
missing$ -- 44
newline$ -- 148
num.names$ -- 87
pop$ -- 184
preamble$ -- 1
purify$ -- 184
quote$ -- 0
skip$ -- 327
stack$ -- 0
substring$ -- 332
swap$ -- 38
text.length$ -- 30
text.prefix$ -- 21
top$ -- 0
type$ -- 172
warning$ -- 0
while$ -- 76
width$ -- 33
write$ -- 366
