\relax 
\providecommand\hyper@newdestlabel[2]{}
\bbl@cs{beforestart}
\catcode `"\active 
\catcode `<\active 
\catcode `>\active 
\@nameuse{es@quoting}
\providecommand\HyperFirstAtBeginDocument{\AtBeginDocument}
\HyperFirstAtBeginDocument{\ifx\hyper@anchor\@undefined
\global\let\oldcontentsline\contentsline
\gdef\contentsline#1#2#3#4{\oldcontentsline{#1}{#2}{#3}}
\global\let\oldnewlabel\newlabel
\gdef\newlabel#1#2{\newlabelxx{#1}#2}
\gdef\newlabelxx#1#2#3#4#5#6{\oldnewlabel{#1}{{#2}{#3}}}
\AtEndDocument{\ifx\hyper@anchor\@undefined
\let\contentsline\oldcontentsline
\let\newlabel\oldnewlabel
\fi}
\fi}
\global\let\hyper@last\relax 
\gdef\HyperFirstAtBeginDocument#1{#1}
\providecommand\HyField@AuxAddToFields[1]{}
\providecommand\HyField@AuxAddToCoFields[2]{}
\babel@aux{english}{}
\babel@aux{spanish}{}
\babel@aux{english}{}
\babel@aux{spanish}{}
\citation{riemann1859ueber}
\citation{artin1924quadratische}
\citation{weil1945courbes}
\citation{weil1946courbes}
\citation{weil1949numbers}
\@writefile{toc}{\contentsline {section}{\numberline {1}Introducción e historia de las conjeturas}{2}{section.1}\protected@file@percent }
\@writefile{brf}{\backcite{riemann1859ueber}{{2}{1}{section.1}}}
\@writefile{brf}{\backcite{artin1924quadratische}{{2}{1}{section.1}}}
\@writefile{brf}{\backcite{weil1945courbes}{{2}{1}{section.1}}}
\@writefile{brf}{\backcite{weil1946courbes}{{2}{1}{section.1}}}
\citation{dwork1960rationality}
\citation{artin1973theorie}
\citation{deligne1974conjecture}
\citation{hartshorne2013algebraic}
\citation{gortz2010algebraic}
\@writefile{brf}{\backcite{weil1949numbers}{{3}{1}{section.1}}}
\@writefile{brf}{\backcite{dwork1960rationality}{{3}{1}{section.1}}}
\@writefile{brf}{\backcite{artin1973theorie}{{3}{1}{section.1}}}
\@writefile{brf}{\backcite{deligne1974conjecture}{{3}{1}{section.1}}}
\@writefile{brf}{\backcite{hartshorne2013algebraic}{{3}{1}{section.1}}}
\@writefile{brf}{\backcite{gortz2010algebraic}{{3}{1}{section.1}}}
\citation{Niven1969}
\@writefile{toc}{\contentsline {section}{\numberline {2}La función zeta}{4}{section.2}\protected@file@percent }
\newlabel{Sec_3}{{2}{4}{La función zeta}{section.2}{}}
\@writefile{toc}{\contentsline {subsection}{\numberline {2.1}Series de potencias}{4}{subsection.2.1}\protected@file@percent }
\newlabel{SubSec_1}{{2.1}{4}{Series de potencias}{subsection.2.1}{}}
\@writefile{brf}{\backcite{Niven1969}{{4}{2.1}{subsection.2.1}}}
\citation{Niven1969}
\citation{lorenzini1996invitation}
\newlabel{Ej_1}{{2.3}{5}{}{Th.2.3}{}}
\@writefile{brf}{\backcite{Niven1969}{{5}{2.1}{Th.2.4}}}
\@writefile{toc}{\contentsline {subsection}{\numberline {2.2}Cuerpos finitos}{5}{subsection.2.2}\protected@file@percent }
\@writefile{brf}{\backcite{lorenzini1996invitation}{{5}{2.2}{subsection.2.2}}}
\citation{atiyah1989introduccion}
\citation{mircea2011}
\@writefile{toc}{\contentsline {subsection}{\numberline {2.3}La función zeta}{6}{subsection.2.3}\protected@file@percent }
\@writefile{brf}{\backcite{atiyah1989introduccion}{{6}{2.3}{Th.2.6}}}
\@writefile{brf}{\backcite{mircea2011}{{6}{2.3}{Th.2.6}}}
\citation{hartshorne2013algebraic}
\citation{gortz2010algebraic}
\citation{gortz2010algebraic}
\citation{gortz2010algebraic}
\citation{gortz2010algebraic}
\@writefile{brf}{\backcite{hartshorne2013algebraic}{{7}{2.3}{Th.2.7}}}
\@writefile{brf}{\backcite{gortz2010algebraic}{{7}{2.3}{Th.2.7}}}
\newlabel{Eq_16}{{2.1}{7}{La función zeta}{equation.2.1}{}}
\@writefile{brf}{\backcite{gortz2010algebraic}{{7}{2.3}{equation.2.1}}}
\@writefile{brf}{\backcite{gortz2010algebraic}{{7}{2.3}{equation.2.1}}}
\@writefile{brf}{\backcite{gortz2010algebraic}{{7}{1}{Hfootnote.1}}}
\newlabel{Eq_5}{{2.2}{8}{La función zeta}{equation.2.2}{}}
\newlabel{Eq_6}{{2.3}{8}{La función zeta}{equation.2.3}{}}
\newlabel{Prop_4}{{2.8}{8}{}{Th.2.8}{}}
\newlabel{Eq_12}{{2.5}{11}{La función zeta}{equation.2.5}{}}
\@writefile{toc}{\contentsline {subsection}{\numberline {2.4}Las conjecturas de Weil}{11}{subsection.2.4}\protected@file@percent }
\newlabel{Th_2}{{2.11}{11}{Conjeturas de Weil}{Th.2.11}{}}
\newlabel{Eq_4}{{2.6}{12}{Conjeturas de Weil}{equation.2.6}{}}
\newlabel{Lema_3}{{2.12}{12}{}{Th.2.12}{}}
\newlabel{Lema_4}{{2.13}{13}{}{Th.2.13}{}}
\citation{eisenbud2006geometry}
\citation{berman2014introduction}
\@writefile{brf}{\backcite{eisenbud2006geometry}{{14}{2.14}{Th.2.14}}}
\@writefile{brf}{\backcite{berman2014introduction}{{14}{2.14}{Th.2.14}}}
\citation{weil1949numbers}
\citation{berndt1998gauss}
\citation{ireland1990classical}
\citation{kowalski2018exponential}
\citation{isaacs1994character}
\citation{isaacs1994character}
\citation{conrad2010characters}
\@writefile{toc}{\contentsline {section}{\numberline {3}El caso de hipersuperficies diagonales}{16}{section.3}\protected@file@percent }
\newlabel{Sec_4}{{3}{16}{El caso de hipersuperficies diagonales}{section.3}{}}
\@writefile{brf}{\backcite{weil1949numbers}{{16}{3}{section.3}}}
\@writefile{brf}{\backcite{berndt1998gauss}{{16}{3}{section.3}}}
\@writefile{brf}{\backcite{ireland1990classical}{{16}{3}{section.3}}}
\@writefile{brf}{\backcite{kowalski2018exponential}{{16}{3}{section.3}}}
\@writefile{toc}{\contentsline {subsection}{\numberline {3.1}Caracteres, sumas de Gauss y Jacobi}{16}{subsection.3.1}\protected@file@percent }
\newlabel{Def_2}{{3.1}{16}{}{Th.3.1}{}}
\citation{neukirch1999algebraic}
\@writefile{brf}{\backcite{isaacs1994character}{{17}{3.1}{Th.3.1}}}
\@writefile{brf}{\backcite{isaacs1994character}{{17}{3.1}{Th.3.1}}}
\@writefile{brf}{\backcite{conrad2010characters}{{17}{3.1}{Th.3.1}}}
\newlabel{Lema_2}{{3.2}{17}{}{Th.3.2}{}}
\newlabel{Def_1}{{3.3}{17}{}{Th.3.3}{}}
\citation{ireland1990classical}
\citation{kowalski2018exponential}
\@writefile{brf}{\backcite{neukirch1999algebraic}{{18}{3.1}{Th.3.3}}}
\newlabel{Eq_2}{{3.1}{18}{Caracteres, sumas de Gauss y Jacobi}{equation.3.1}{}}
\@writefile{brf}{\backcite{ireland1990classical}{{18}{3.1}{Th.3.5}}}
\@writefile{brf}{\backcite{kowalski2018exponential}{{18}{3.1}{Th.3.5}}}
\citation{kowalski2018exponential}
\@writefile{brf}{\backcite{kowalski2018exponential}{{19}{3.1}{Th.3.6}}}
\newlabel{Prop_2}{{3.8}{19}{}{Th.3.8}{}}
\citation{Rojas09}
\@writefile{lof}{\contentsline {figure}{\numberline {1}{\ignorespaces Sumas de Gauss de $\mathbb  {F}_{25}$:   Para un generador $g$ de $\mathbb  {F}_{25}^\star $, $\chi _1(g)=e^{\frac  {2\pi i}{24}}$ y $\chi _2(g)=e^{\frac  {6\pi i}{24}}$.\relax }}{20}{figure.caption.2}\protected@file@percent }
\providecommand*\caption@xref[2]{\@setref\relax\@undefined{#1}}
\newlabel{fig_2}{{1}{20}{Sumas de Gauss de $\F _{25}$: \\ Para un generador $g$ de $\F _{25}^\star $, $\chi _1(g)=e^{\frac {2\pi i}{24}}$ y $\chi _2(g)=e^{\frac {6\pi i}{24}}$.\relax }{figure.caption.2}{}}
\@writefile{brf}{\backcite{Rojas09}{{20}{3.1}{figure.caption.2}}}
\newlabel{Eq_3}{{3.2}{21}{Caracteres, sumas de Gauss y Jacobi}{equation.3.2}{}}
\newlabel{Prop_1}{{3.10}{21}{}{Th.3.10}{}}
\newlabel{Eq_1}{{3.3}{23}{Caracteres, sumas de Gauss y Jacobi}{equation.3.3}{}}
\newlabel{Prop_3}{{3.11}{23}{}{Th.3.11}{}}
\newlabel{Cor_3}{{3.12}{24}{}{Th.3.12}{}}
\@writefile{toc}{\contentsline {subsection}{\numberline {3.2}La relación de Hasse-Davenport}{24}{subsection.3.2}\protected@file@percent }
\newlabel{Sec_1}{{3.2}{24}{La relación de Hasse-Davenport}{subsection.3.2}{}}
\newlabel{Lema_1}{{3.13}{24}{}{Th.3.13}{}}
\newlabel{Lema_1_3}{{3}{24}{}{Item.13}{}}
\@writefile{lof}{\contentsline {figure}{\numberline {2}{\ignorespaces Relación de Hasse-Davenport, donde $q=5$, $s=2$ y   $\chi (g)=e^{\frac  {2\pi i}{4}}$ para un generador de $\mathbb  {F}_5^\star $.\relax }}{26}{figure.caption.3}\protected@file@percent }
\newlabel{fig_3}{{2}{26}{Relación de Hasse-Davenport, donde $q=5$, $s=2$ y \\ $\chi (g)=e^{\frac {2\pi i}{4}}$ para un generador de $\F _5^\star $.\relax }{figure.caption.3}{}}
\newlabel{Cor_1}{{3.16}{26}{}{Th.3.16}{}}
\@writefile{toc}{\contentsline {subsection}{\numberline {3.3}Cálculo de $\mathcal  {N}_s$ y conjeturas para hipersuperficies diagonales}{27}{subsection.3.3}\protected@file@percent }
\newlabel{Th_1}{{3.17}{27}{}{Th.3.17}{}}
\citation{gortz2010algebraic}
\newlabel{Cor_2}{{3.18}{28}{}{Th.3.18}{}}
\newlabel{Eq_15}{{3.5}{28}{Cálculo de $\mathcal {N}_s$ y conjeturas para hipersuperficies diagonales}{equation.3.5}{}}
\@writefile{brf}{\backcite{gortz2010algebraic}{{28}{3.3}{equation.3.5}}}
\citation{voisin2003hodge}
\citation{dimca2012singularities}
\@writefile{brf}{\backcite{voisin2003hodge}{{29}{4}{Item.20}}}
\@writefile{brf}{\backcite{dimca2012singularities}{{30}{4}{Item.20}}}
\citation{atiyah1989introduccion}
\citation{hartshorne2013algebraic}
\citation{gortz2010algebraic}
\citation{matsumura1970commutative}
\@writefile{toc}{\contentsline {section}{\numberline {4}Conjeturas de Weil para curvas}{32}{section.4}\protected@file@percent }
\newlabel{Sec_5}{{4}{32}{Conjeturas de Weil para curvas}{section.4}{}}
\@writefile{toc}{\contentsline {subsection}{\numberline {4.1}Divisores}{32}{subsection.4.1}\protected@file@percent }
\@writefile{brf}{\backcite{atiyah1989introduccion}{{32}{4.1}{subsection.4.1}}}
\@writefile{brf}{\backcite{hartshorne2013algebraic}{{32}{4.1}{subsection.4.1}}}
\citation{gortz2010algebraic}
\citation{gortz2010algebraic}
\@writefile{brf}{\backcite{gortz2010algebraic}{{33}{4.1}{subsection.4.1}}}
\@writefile{brf}{\backcite{gortz2010algebraic}{{33}{4.1}{subsection.4.1}}}
\newlabel{Eq_11}{{4.1}{33}{Divisores}{equation.4.1}{}}
\newlabel{Eq_8}{{4.2}{33}{Divisores}{equation.4.2}{}}
\@writefile{brf}{\backcite{gortz2010algebraic}{{33}{4.1}{equation.4.2}}}
\@writefile{brf}{\backcite{matsumura1970commutative}{{33}{5}{Hfootnote.5}}}
\citation{gortz2010algebraic}
\newlabel{Eq_7}{{4.3}{34}{Riemann-Roch}{equation.4.3}{}}
\@writefile{brf}{\backcite{gortz2010algebraic}{{34}{4.1}{equation.4.3}}}
\newlabel{Cor_4}{{4.2}{34}{}{Th.4.2}{}}
\@writefile{toc}{\contentsline {subsection}{\numberline {4.2}Racionalidad y ecuación funcional}{35}{subsection.4.2}\protected@file@percent }
\newlabel{Sec_2}{{4.2}{35}{Racionalidad y ecuación funcional}{subsection.4.2}{}}
\newlabel{Eq_9}{{4.4}{35}{}{equation.4.4}{}}
\newlabel{Th_3}{{4.5}{36}{}{Th.4.5}{}}
\newlabel{Eq_10}{{4.5}{37}{Racionalidad y ecuación funcional}{equation.4.5}{}}
\newlabel{Lema_5}{{4.7}{37}{}{Th.4.7}{}}
\@writefile{lof}{\contentsline {figure}{\numberline {3}{\ignorespaces La Desigualdad de Hasse-Weil (para la curva elíptica   $x_0x_2^2+x_0x_1x_2+x_0^2x_2 = x_1^3+x_0x_1^2+x_0x_1^2$ y $q=2$) implica que $\mathcal  {N}_s$ siempre se encuentra entre las curvas $q^s+1+2\sqrt  {q^s}$ y $q^s+1-2\sqrt  {q^s}$.\relax }}{38}{figure.caption.4}\protected@file@percent }
\newlabel{fig_1}{{3}{38}{La Desigualdad de Hasse-Weil (para la curva elíptica \\ $x_0x_2^2+x_0x_1x_2+x_0^2x_2 = x_1^3+x_0x_1^2+x_0x_1^2$ y $q=2$) implica que $\mathcal {N}_s$ siempre se encuentra entre las curvas $q^s+1+2\sqrt {q^s}$ y $q^s+1-2\sqrt {q^s}$.\relax }{figure.caption.4}{}}
\@writefile{toc}{\contentsline {subsection}{\numberline {4.3}Intersecciones en superficies}{38}{subsection.4.3}\protected@file@percent }
\citation{hartshorne2013algebraic}
\citation{hartshorne2013algebraic}
\citation{hartshorne2013algebraic}
\@writefile{brf}{\backcite{hartshorne2013algebraic}{{39}{4.3}{Item.32}}}
\@writefile{brf}{\backcite{hartshorne2013algebraic}{{39}{4.3}{Item.32}}}
\@writefile{brf}{\backcite{hartshorne2013algebraic}{{39}{4.3}{Item.32}}}
\newlabel{Prop_5}{{4.9}{39}{Fórmula del adjunto}{Th.4.9}{}}
\newlabel{Th_4}{{4.10}{39}{Teorema del índice de Hodge}{Th.4.10}{}}
\citation{mircea2011}
\newlabel{Eq_13}{{4.6}{40}{Intersecciones en superficies}{equation.4.6}{}}
\newlabel{Eq_14}{{4.7}{40}{Intersecciones en superficies}{equation.4.7}{}}
\newlabel{Prop_6}{{4.11}{40}{}{Th.4.11}{}}
\@writefile{brf}{\backcite{mircea2011}{{40}{4.3}{Th.4.11}}}
\@writefile{toc}{\contentsline {subsection}{\numberline {4.4}La desigualdad de Hasse-Weil}{40}{subsection.4.4}\protected@file@percent }
\newlabel{Prop_7}{{4.12}{40}{}{Th.4.12}{}}
\citation{miranda1995algebraic}
\@writefile{brf}{\backcite{miranda1995algebraic}{{41}{4.4}{Th.4.13}}}
\citation{hartshorne2013algebraic}
\citation{lorenzini1996invitation}
\citation{ireland1990classical}
\@writefile{toc}{\contentsline {section}{\numberline {5}Conclusiones}{42}{section.5}\protected@file@percent }
\@writefile{brf}{\backcite{hartshorne2013algebraic}{{42}{5}{section.5}}}
\@writefile{brf}{\backcite{lorenzini1996invitation}{{42}{5}{section.5}}}
\citation{edixhoven2011algebraic}
\citation{raskin2007}
\citation{mircea2011}
\@writefile{brf}{\backcite{ireland1990classical}{{43}{5}{section.5}}}
\@writefile{brf}{\backcite{edixhoven2011algebraic}{{43}{5}{section.5}}}
\@writefile{brf}{\backcite{raskin2007}{{43}{5}{section.5}}}
\@writefile{brf}{\backcite{mircea2011}{{43}{5}{section.5}}}
\citation{*}
\bibstyle{alpha}
\bibdata{biblio_TFM.bib}
\bibcite{artin1973theorie}{AGV73}
\bibcite{atiyah1989introduccion}{AM89}
\bibcite{artin1924quadratische}{Art24}
\bibcite{berndt1998gauss}{BEW98}
\bibcite{berman2014introduction}{BF14}
\bibcite{conrad2010characters}{Con10}
\bibcite{deligne1974conjecture}{Del74}
\bibcite{dimca2012singularities}{Dim12}
\bibcite{dwork1960rationality}{Dwo60}
\bibcite{eisenbud2006geometry}{EH06}
\bibcite{edixhoven2011algebraic}{ET11}
\bibcite{gortz2010algebraic}{GW10}
\bibcite{hartshorne2013algebraic}{Har77}
\bibcite{ireland1990classical}{IR90}
\bibcite{isaacs1994character}{Isa94}
\bibcite{kowalski2018exponential}{Kow18}
\bibcite{lorenzini1996invitation}{Lor96}
\bibcite{matsumura1970commutative}{Mat70}
\bibcite{miranda1995algebraic}{Mir95}
\bibcite{mircea2011}{Mus11}
\bibcite{neukirch1999algebraic}{Neu99}
\bibcite{Niven1969}{Niv69}
\bibcite{raskin2007}{Ras07}
\bibcite{riemann1859ueber}{Rie59}
\bibcite{Rojas09}{Roj09}
\bibcite{voisin2003hodge}{Voi03}
\bibcite{weil1945courbes}{Wei45}
\bibcite{weil1946courbes}{Wei46}
\bibcite{weil1949numbers}{Wei49}
