\relax 
\providecommand\hyper@newdestlabel[2]{}
\providecommand\HyperFirstAtBeginDocument{\AtBeginDocument}
\HyperFirstAtBeginDocument{\ifx\hyper@anchor\@undefined
\global\let\oldcontentsline\contentsline
\gdef\contentsline#1#2#3#4{\oldcontentsline{#1}{#2}{#3}}
\global\let\oldnewlabel\newlabel
\gdef\newlabel#1#2{\newlabelxx{#1}#2}
\gdef\newlabelxx#1#2#3#4#5#6{\oldnewlabel{#1}{{#2}{#3}}}
\AtEndDocument{\ifx\hyper@anchor\@undefined
\let\contentsline\oldcontentsline
\let\newlabel\oldnewlabel
\fi}
\fi}
\global\let\hyper@last\relax 
\gdef\HyperFirstAtBeginDocument#1{#1}
\providecommand\HyField@AuxAddToFields[1]{}
\providecommand\HyField@AuxAddToCoFields[2]{}
\bbl@cs{beforestart}
\catcode `"\active 
\catcode `<\active 
\catcode `>\active 
\@nameuse{es@quoting}
\pgfsyspdfmark {pgfid3}{0}{17900937}
\babel@aux{spanish}{}
\@writefile{nav}{\headcommand {\slideentry {0}{0}{1}{1/1}{}{0}}}
\@writefile{nav}{\headcommand {\beamer@framepages {1}{1}}}
\pgfsyspdfmark {pgfid10}{0}{17900937}
\pgfsyspdfmark {pgfid17}{0}{17900937}
\pgfsyspdfmark {pgfid24}{0}{17900937}
\pgfsyspdfmark {pgfid31}{0}{17900937}
\@writefile{nav}{\headcommand {\slideentry {0}{0}{2}{2/5}{}{0}}}
\@writefile{nav}{\headcommand {\beamer@framepages {2}{5}}}
\pgfsyspdfmark {pgfid41}{0}{17900937}
\pgfsyspdfmark {pgfid51}{0}{17900937}
\pgfsyspdfmark {pgfid61}{0}{17900937}
\pgfsyspdfmark {pgfid71}{0}{17900937}
\pgfsyspdfmark {pgfid81}{0}{17900937}
\pgfsyspdfmark {pgfid91}{0}{17900937}
\@writefile{nav}{\headcommand {\slideentry {0}{0}{3}{6/11}{}{0}}}
\@writefile{nav}{\headcommand {\beamer@framepages {6}{11}}}
\pgfsyspdfmark {pgfid104}{0}{17900937}
\pgfsyspdfmark {pgfid117}{0}{17900937}
\pgfsyspdfmark {pgfid130}{0}{17900937}
\pgfsyspdfmark {pgfid143}{0}{17900937}
\@writefile{nav}{\headcommand {\slideentry {0}{0}{4}{12/15}{}{0}}}
\@writefile{nav}{\headcommand {\beamer@framepages {12}{15}}}
\pgfsyspdfmark {pgfid153}{0}{17900937}
\pgfsyspdfmark {pgfid163}{0}{17900937}
\pgfsyspdfmark {pgfid173}{0}{17900937}
\pgfsyspdfmark {pgfid183}{0}{17900937}
\pgfsyspdfmark {pgfid193}{0}{17900937}
\@writefile{nav}{\headcommand {\slideentry {0}{0}{5}{16/20}{}{0}}}
\@writefile{nav}{\headcommand {\beamer@framepages {16}{20}}}
\pgfsyspdfmark {pgfid202}{0}{17900937}
\pgfsyspdfmark {pgfid211}{0}{17900937}
\pgfsyspdfmark {pgfid220}{0}{17900937}
\pgfsyspdfmark {pgfid229}{0}{17900937}
\pgfsyspdfmark {pgfid238}{0}{17900937}
\@writefile{nav}{\headcommand {\slideentry {0}{0}{6}{21/25}{}{0}}}
\@writefile{nav}{\headcommand {\beamer@framepages {21}{25}}}
\pgfsyspdfmark {pgfid250}{0}{17900937}
\pgfsyspdfmark {pgfid262}{0}{17900937}
\pgfsyspdfmark {pgfid274}{0}{17900937}
\pgfsyspdfmark {pgfid286}{0}{17900937}
\pgfsyspdfmark {pgfid298}{0}{17900937}
\pgfsyspdfmark {pgfid310}{0}{17900937}
\@writefile{nav}{\headcommand {\slideentry {0}{0}{7}{26/31}{}{0}}}
\@writefile{nav}{\headcommand {\beamer@framepages {26}{31}}}
\pgfsyspdfmark {pgfid328}{0}{17900937}
\pgfsyspdfmark {pgfid346}{0}{17900937}
\pgfsyspdfmark {pgfid364}{0}{17900937}
\pgfsyspdfmark {pgfid382}{0}{17900937}
\pgfsyspdfmark {pgfid400}{0}{17900937}
\@writefile{nav}{\headcommand {\slideentry {0}{0}{8}{32/36}{}{0}}}
\@writefile{nav}{\headcommand {\beamer@framepages {32}{36}}}
\pgfsyspdfmark {pgfid410}{0}{17900937}
\pgfsyspdfmark {pgfid420}{0}{17900937}
\pgfsyspdfmark {pgfid430}{0}{17900937}
\pgfsyspdfmark {pgfid440}{0}{17900937}
\@writefile{nav}{\headcommand {\slideentry {0}{0}{9}{37/40}{}{0}}}
\@writefile{nav}{\headcommand {\beamer@framepages {37}{40}}}
\pgfsyspdfmark {pgfid451}{0}{17900937}
\pgfsyspdfmark {pgfid462}{0}{17900937}
\pgfsyspdfmark {pgfid473}{0}{17900937}
\pgfsyspdfmark {pgfid484}{0}{17900937}
\@writefile{nav}{\headcommand {\slideentry {0}{0}{10}{41/44}{}{0}}}
\@writefile{nav}{\headcommand {\beamer@framepages {41}{44}}}
\pgfsyspdfmark {pgfid495}{0}{17900937}
\pgfsyspdfmark {pgfid506}{0}{17900937}
\pgfsyspdfmark {pgfid517}{0}{17900937}
\pgfsyspdfmark {pgfid528}{0}{17900937}
\@writefile{nav}{\headcommand {\slideentry {0}{0}{11}{45/48}{}{0}}}
\@writefile{nav}{\headcommand {\beamer@framepages {45}{48}}}
\pgfsyspdfmark {pgfid539}{0}{17900937}
\pgfsyspdfmark {pgfid550}{0}{17900937}
\pgfsyspdfmark {pgfid561}{0}{17900937}
\pgfsyspdfmark {pgfid572}{0}{17900937}
\@writefile{nav}{\headcommand {\slideentry {0}{0}{12}{49/52}{}{0}}}
\@writefile{nav}{\headcommand {\beamer@framepages {49}{52}}}
\pgfsyspdfmark {pgfid583}{0}{17900937}
\pgfsyspdfmark {pgfid594}{0}{17900937}
\pgfsyspdfmark {pgfid605}{0}{17900937}
\pgfsyspdfmark {pgfid616}{0}{17900937}
\@writefile{nav}{\headcommand {\slideentry {0}{0}{13}{53/56}{}{0}}}
\@writefile{nav}{\headcommand {\beamer@framepages {53}{56}}}
\pgfsyspdfmark {pgfid632}{0}{17900937}
\pgfsyspdfmark {pgfid648}{0}{17900937}
\pgfsyspdfmark {pgfid664}{0}{17900937}
\pgfsyspdfmark {pgfid680}{0}{17900937}
\pgfsyspdfmark {pgfid696}{0}{17900937}
\@writefile{nav}{\headcommand {\slideentry {0}{0}{14}{57/61}{}{0}}}
\@writefile{nav}{\headcommand {\beamer@framepages {57}{61}}}
\pgfsyspdfmark {pgfid709}{0}{17900937}
\pgfsyspdfmark {pgfid722}{0}{17900937}
\pgfsyspdfmark {pgfid735}{0}{17900937}
\pgfsyspdfmark {pgfid748}{0}{17900937}
\@writefile{nav}{\headcommand {\slideentry {0}{0}{15}{62/65}{}{0}}}
\@writefile{nav}{\headcommand {\beamer@framepages {62}{65}}}
\pgfsyspdfmark {pgfid761}{0}{17900937}
\pgfsyspdfmark {pgfid774}{0}{17900937}
\pgfsyspdfmark {pgfid787}{0}{17900937}
\@writefile{nav}{\headcommand {\slideentry {0}{0}{16}{66/68}{}{0}}}
\@writefile{nav}{\headcommand {\beamer@framepages {66}{68}}}
\pgfsyspdfmark {pgfid799}{0}{17900937}
\pgfsyspdfmark {pgfid811}{0}{17900937}
\pgfsyspdfmark {pgfid823}{0}{17900937}
\@writefile{nav}{\headcommand {\slideentry {0}{0}{17}{69/71}{}{0}}}
\@writefile{nav}{\headcommand {\beamer@framepages {69}{71}}}
\pgfsyspdfmark {pgfid839}{0}{17900937}
\pgfsyspdfmark {pgfid855}{0}{17900937}
\pgfsyspdfmark {pgfid871}{0}{17900937}
\pgfsyspdfmark {pgfid887}{0}{17900937}
\@writefile{nav}{\headcommand {\slideentry {0}{0}{18}{72/75}{}{0}}}
\@writefile{nav}{\headcommand {\beamer@framepages {72}{75}}}
\pgfsyspdfmark {pgfid898}{0}{17900937}
\pgfsyspdfmark {pgfid909}{0}{17900937}
\pgfsyspdfmark {pgfid920}{0}{17900937}
\pgfsyspdfmark {pgfid931}{0}{17900937}
\@writefile{nav}{\headcommand {\slideentry {0}{0}{19}{76/79}{}{0}}}
\@writefile{nav}{\headcommand {\beamer@framepages {76}{79}}}
\pgfsyspdfmark {pgfid945}{0}{17900937}
\pgfsyspdfmark {pgfid959}{0}{17900937}
\pgfsyspdfmark {pgfid973}{0}{17900937}
\pgfsyspdfmark {pgfid987}{0}{17900937}
\pgfsyspdfmark {pgfid1001}{0}{17900937}
\pgfsyspdfmark {pgfid1015}{0}{17900937}
\pgfsyspdfmark {pgfid1029}{0}{17900937}
\pgfsyspdfmark {pgfid1043}{0}{17900937}
\@writefile{nav}{\headcommand {\slideentry {0}{0}{20}{80/87}{}{0}}}
\@writefile{nav}{\headcommand {\beamer@framepages {80}{87}}}
\pgfsyspdfmark {pgfid1050}{0}{17900937}
\pgfsyspdfmark {pgfid1057}{0}{17900937}
\pgfsyspdfmark {pgfid1064}{0}{17900937}
\pgfsyspdfmark {pgfid1071}{0}{17900937}
\pgfsyspdfmark {pgfid1078}{0}{17900937}
\pgfsyspdfmark {pgfid1085}{0}{17900937}
\pgfsyspdfmark {pgfid1092}{0}{17900937}
\pgfsyspdfmark {pgfid1099}{0}{17900937}
\@writefile{nav}{\headcommand {\slideentry {0}{0}{21}{88/95}{}{0}}}
\@writefile{nav}{\headcommand {\beamer@framepages {88}{95}}}
\pgfsyspdfmark {pgfid1106}{0}{17900937}
\@writefile{nav}{\headcommand {\slideentry {0}{0}{22}{96/96}{}{0}}}
\@writefile{nav}{\headcommand {\beamer@framepages {96}{96}}}
\@writefile{nav}{\headcommand {\beamer@partpages {1}{96}}}
\@writefile{nav}{\headcommand {\beamer@subsectionpages {1}{96}}}
\@writefile{nav}{\headcommand {\beamer@sectionpages {1}{96}}}
\@writefile{nav}{\headcommand {\beamer@documentpages {96}}}
\@writefile{nav}{\headcommand {\gdef \inserttotalframenumber {22}}}
